id,variant,tags,tier,rarity,fleet pts,op cost,formation,range,attackRunRange,attackPositionOffset,num,role,role desc,refit,base value,,,,,,,,,,,,,number
thquest_fairy_maid_wing,thquest_Fairy_Maid,"interceptor1,thquest_gen_bp",0,,3,1,V,4000,300,200,5,INTERCEPTOR,Interceptor,5,1000,,,,,,,,,,,,,99.9
thquest_sunflower_fairy_wing,thquest_sunflower_fairy_standard,"fighter5,fighter,rare_bp",0,,6,8,V,5000,700,,4,FIGHTER,Heavy Fighter,10,7000,,,,,,,,,,,,,
thquest_myon_fighter_wing,thquest_myon_fighter_standard,"support2,thquest_gen_bp",1,,4,10,V,0,500,,1,SUPPORT,Support,10,5000,,,,,,,,,,,,,
thquest_shanghai_doll_wing,thquest_shanghai_standard,"bomber3, bomber,thquest_gen_bp",1,,5,10,CLAW,4000,1800,100,6,BOMBER,Bomber,5,6000,,,,,,,,,,,,,
thquest_hourai_doll_wing,thquest_hourai_standard,"bomber3, bomber,thquest_gen_bp",1,,5,10,V,4000,1800,100,6,BOMBER,Bomber,5,6000,,,,,,,,,,,,,
thquest_fairy_wing,thquest_fairy_standard,"fighter3,interceptor,thquest_gen_bp",0,,3,5,V,4000,300,100,6,INTERCEPTOR,Interceptor,5,1000,,,,,,,,,,,,,
thquest_shrine_tank_wing,thquest_shrine_tank_standard,"fighter4,thquest_gen_bp",1,,5,15,V,4000,700,300,1,FIGHTER,Support,15,9000,,,,,,,,,,,,,
thquest_flower_tank_wing,thquest_flower_tank_standard,"fighter5,rare_bp",2,,8,25,V,4000,700,300,1,FIGHTER,Anti-Ship,20,20000,,,,,,,,,,,,,
thquest_zombie_fairy_wing,thquest_zombie_fairy_standard,"fighter5,fighter,rare_bp",1,,3,12,V,4000,500,,5,FIGHTER,Support,5,2000,,,,,,,,,,,,,
